%YAML 1.1
%TAG !u! tag:unity3d.com,2011:
--- !u!114 &11400000
MonoBehaviour:
  m_ObjectHideFlags: 0
  m_PrefabParentObject: {fileID: 0}
  m_PrefabInternal: {fileID: 0}
  m_GameObject: {fileID: 0}
  m_Enabled: 1
  m_EditorHideFlags: 0
  m_Script: {fileID: 11500000, guid: f30eb6b2432ca7a4ba9991343a4d927f, type: 3}
  m_Name: Bst_AtkSpeed
  m_EditorClassIdentifier: 
  boostName: AttackSpeed
  woodReq: 0
  metalReq: 1
  erbsReq: 3
  medsReq: 0
  icon: {fileID: 21300000, guid: 8b8a8bf1c8ae90140828a3f6fac45608, type: 3}
  effect: {fileID: 11400000, guid: 1995a4040e916784cbafb15fdeddd45a, type: 2}
