%YAML 1.1
%TAG !u! tag:unity3d.com,2011:
--- !u!114 &11400000
MonoBehaviour:
  m_ObjectHideFlags: 0
  m_PrefabParentObject: {fileID: 0}
  m_PrefabInternal: {fileID: 0}
  m_GameObject: {fileID: 0}
  m_Enabled: 1
  m_EditorHideFlags: 0
  m_Script: {fileID: 11500000, guid: 4ed61c71ea156c84a8e79b0f1dc097b2, type: 3}
  m_Name: StatZombieBase
  m_EditorClassIdentifier: 
  hp: 10
  speed: 0.8
  damage: 3
  attackTimerSec: 1
  ammoDropPercent: 25
  maxFocusSwitch: 5
